Lab 8 Machine Learning - Miranda Chin
…
#In this model, the Mean Absolute Error is relatively consistent, while the Root Mean Squared Error and R squared have more variation. This might mean that the model is not perfectly fitted to analyze the data, but that we should aim for 2.5 to 6 for hidden units as this is where the points were the most consistent, as well as -6 to -3 for the amount of regularization for the same reasons.

Check the skill of the tuned model

#Collect Metrics/Show Best/Describe in Plain Language   
metrics_tbl <- collect_metrics(model_params)
print(metrics_tbl)

# A tibble: 75 × 8
   hidden_units  penalty .metric .estimator  mean     n std_err .config         
          <int>    <dbl> <chr>   <chr>      <dbl> <int>   <dbl> <chr>           
 1            1 1.88e- 5 mae     standard   0.431    10  0.0605 Preprocessor1_M…
 2            1 1.88e- 5 rmse    standard   0.625    10  0.0697 Preprocessor1_M…
 3            1 1.88e- 5 rsq     standard   0.788     9  0.0260 Preprocessor1_M…
 4            1 7.76e- 4 mae     standard   0.368    10  0.0223 Preprocessor1_M…
 5            1 7.76e- 4 rmse    standard   0.557    10  0.0366 Preprocessor1_M…
 6            1 7.76e- 4 rsq     standard   0.791    10  0.0233 Preprocessor1_M…
 7            7 8.56e-10 mae     standard   0.372    10  0.0192 Preprocessor1_M…
 8            7 8.56e-10 rmse    standard   0.577    10  0.0310 Preprocessor1_M…
 9            7 8.56e-10 rsq     standard   0.780    10  0.0223 Preprocessor1_M…
10            9 5.03e- 8 mae     standard   0.375    10  0.0219 Preprocessor1_M…
# ℹ 65 more rows
…
#Interpret Metrics
collect_metrics(final_model_fit)

# A tibble: 2 × 4
  .metric .estimator .estimate .config             
  <chr>   <chr>          <dbl> <chr>               
1 rmse    standard       0.626 Preprocessor1_Model1
2 rsq     standard       0.774 Preprocessor1_Model1

#The RMSE of the model is 0.621, meaning that on average the predictions are off by 0.621 units. The R squared is 0.778 which means that the model explains about 78% of variance in the data.

collect_predictions(final_model_fit)

# A tibble: 102 × 5
   .pred id                .row logQmean .config             
   <dbl> <chr>            <int>    <dbl> <chr>               
 1 0.710 train/test split     2    0.708 Preprocessor1_Model1
 2 0.571 train/test split     3    0.781 Preprocessor1_Model1
 3 0.963 train/test split     5    1.00  Preprocessor1_Model1
 4 0.677 train/test split     6    0.824 Preprocessor1_Model1
 5 0.754 train/test split    10    0.756 Preprocessor1_Model1
 6 0.730 train/test split    16    0.608 Preprocessor1_Model1
 7 0.741 train/test split    19    0.766 Preprocessor1_Model1
 8 0.783 train/test split    22    0.746 Preprocessor1_Model1
 9 0.962 train/test split    27    1.09  Preprocessor1_Model1
10 0.284 train/test split    33    0.470 Preprocessor1_Model1
# ℹ 92 more rows
…
